Network plot of mate-pair or paired-end connected scaffold reads — mmnetwork • mmgenome2
…
    Value

    A ggplot object. Note that mmgenome2 hides all warnings produced by ggplot objects.

    Using the locator with mmnetwork

Unlike a plot generated by mmplot, the coordinates of points in each dimension in a mmnetwork plot is not contained within the provided dataframe mm itself. As such mmnetwork does not have a corresponding extract function like mmextract is for mmplot. Instead, a subset of mm containing all scaffolds within the selection polygon is available in the returned ggplot object with plot$data_in_selection.

    Examples

library(mmgenome2)
data(mmgenome2)
data(paired_ends)
mmgenome2
#> # A tibble: 97,285 x 13
#>    scaffold length    gc cov_C13.11.14 cov_C13.11.25 cov_C13.12.03 cov_C14.01.09
#>    <chr>     <dbl> <dbl>         <dbl>         <dbl>         <dbl>         <dbl>
#>  1 1          8264  57.8       1.44             53.6         0             0.066
#>  2 2          1027  57.0       0.625            24.2         0             0    
#>  3 3          1665  55.9      13.5             434.          0.166         0.177
#>  4 4          9056  35.9       0.01             23.4         0             0    
#>  5 5          3343  64.0       3.20             16.4         0             0    
#>  6 6         98207  39.1       0.00966          24.5         3.29          9.85 
#>  7 7          6480  63.0       2.61             19.2         1.46         12.3  
#>  8 8         15790  61.7       2.78             21.2         1.62         10.3  
#>  9 9          1403  70.4      85.1             192.          0             0    
#> 10 10         2018  70.2      50.3             101.          0             0    
#> # … with 97,275 more rows, and 6 more variables: PC1 <dbl>, PC2 <dbl>,
#> #   PC3 <dbl>, geneID <chr>, taxonomy <fct>, rRNA16S <fct>
selection <- data.frame(
  cov_C13.11.25 = c(7.2, 16.2, 25.2, 23.3, 10.1),
  cov_C14.01.09 = c(47, 77, 52.8, 29.5, 22.1)
)
mmgenome2_extraction <- mmextract(mmgenome2, selection = selection)
#> 61 scaffolds (or 1.34% of the scaffolds in mm, weighted by length) remain after 97224 of 97285 scaffolds have been filtered.
mmgenome2_extraction
#> # A tibble: 61 x 13
#>    scaffold length    gc cov_C13.11.14 cov_C13.11.25 cov_C13.12.03 cov_C14.01.09
#>    <chr>     <dbl> <dbl>         <dbl>         <dbl>         <dbl>         <dbl>
#>  1 180       22093  74.0         0.298          12.0          7.34          37.9
#>  2 181        2970  68.0         0.34           13.9          7.37          38.6
#>  3 227      190826  65.4         0.348          13.0          6.91          38.5
#>  4 253      296715  70.2         1.06           15.2          7.00          41.1
#>  5 315      218862  71.7         0.366          12.6          7.17          38.8
#>  6 343       27203  57.6         0.235          10.7          5.07          32.0
#>  7 381        6128  67.2         8.11           22.6          5.89          48.7
#>  8 386      164942  68.2         0.359          12.3          6.73          37.2
#>  9 396        7448  72.6         0.329          13.0          7.59          41.0
#> 10 423      100199  68.7         1.40           15.3          6.71          40.0
#> # … with 51 more rows, and 6 more variables: PC1 <dbl>, PC2 <dbl>, PC3 <dbl>,
#> #   geneID <chr>, taxonomy <fct>, rRNA16S <fct>
…
