Introduction to mmgenome2 • mmgenome2
…
This loads all the files into a single data frame object called mm. By giving a folder path to coverage, mmload expects all files in the folder that end with "_cov" to be coverage profiles, and will automatically load them all and name them by filename. By default the scaffold lengths as well as the GC content of each scaffold are calculated. Notice that it is also possible to perform Principal Components Analysis and t-SNE on tetra-nucleotide frequencies by setting kmer_pca = TRUE and kmer_BH_tSNE = TRUE, which will then also be available in the output data frame mm to aid the binning process. Any additional data can be provided with additional.

By simply typing the name of the object in the console we get a brief overview of the data frame:

mm

## # A tibble: 97,285 x 18
##    scaffold length    gc cov_C13.11.14 cov_C13.11.25 cov_C13.12.03 cov_C14.01.09
##    <chr>     <int> <dbl>         <dbl>         <dbl>         <dbl>         <dbl>
##  1 1          8264  57.8       1.44             53.6         0             0.066
##  2 2          1027  57.0       0.625            24.2         0             0    
##  3 3          1665  55.9      13.5             434.          0.166         0.177
##  4 4          9056  35.9       0.01             23.4         0             0    
##  5 5          3343  64.0       3.20             16.4         0             0    
##  6 6         98207  39.1       0.00966          24.5         3.29          9.85 
##  7 7          6480  63.0       2.61             19.2         1.46         12.3  
##  8 8         15790  61.7       2.78             21.2         1.62         10.3  
##  9 9          1403  70.4      85.1             192.          0             0    
## 10 10         2018  70.2      50.3             101.          0             0    
## # … with 97,275 more rows, and 11 more variables: geneID <chr>, phylum <chr>,
## #   count <chr>, all.phylum.assignments <chr>, class <chr>,
## #   all.class.assignments <chr>, pps_phylum <chr>, pps_class <chr>,
## #   pps_order <chr>, pps_family <chr>, pps_genus <chr>
…
mm_subset3 <- p$data_in_selection #there is no separate mmextract() function for network plots

Beware that with mmnetwork there is no separate extract function like mmextract is for mmplot. This is because the axes in a network plot are synthetic and are not directly contained within the data like for example coverage profiles are. Therefore, to extract all scaffolds in the selected subspace in the network plot it is instead available in the returned plot object. If for example the network plot is assigned to the object p, then the subset data in the selection is available with p$data_in_selection. The above selection then removed 20 scaffolds and there is now 61 scaffolds remaining:

mm_subset3

## # A tibble: 61 x 18
##    scaffold length    gc cov_C13.11.14 cov_C13.11.25 cov_C13.12.03 cov_C14.01.09
##    <chr>     <int> <dbl>         <dbl>         <dbl>         <dbl>         <dbl>
##  1 180       22093  74.0         0.298          12.0          7.34          37.9
##  2 181        2970  68.0         0.34           13.9          7.37          38.6
##  3 227      190826  65.4         0.348          13.0          6.91          38.5
##  4 253      296715  70.2         1.06           15.2          7.00          41.1
##  5 315      218862  71.7         0.366          12.6          7.17          38.8
##  6 343       27203  57.6         0.235          10.7          5.07          32.0
##  7 386      164942  68.2         0.359          12.3          6.73          37.2
##  8 396        7448  72.6         0.329          13.0          7.59          41.0
##  9 423      100199  68.7         1.40           15.3          6.71          40.0
## 10 431      446220  72.4         0.409          12.6          6.80          37.9
## # … with 51 more rows, and 11 more variables: geneID <chr>, phylum <chr>,
## #   count <chr>, all.phylum.assignments <chr>, class <chr>,
## #   all.class.assignments <chr>, pps_phylum <chr>, pps_class <chr>,
## #   pps_order <chr>, pps_family <chr>, pps_genus <chr>
…
